{
  "languageserver": {
    "haskell": {
      "command": "haskell-language-server-wrapper",
      "args": ["--lsp"],
      "rootPatterns": ["*.cabal", "stack.yaml", "cabal.project", "package.yaml", "hie.yaml"],
      "filetypes": ["haskell", "lhaskell"],
      // Settings are optional, here are some example values
      "settings": {
        "haskell": {
          "checkParents": "CheckOnSave",
          "checkProject": true,
          "maxCompletions": 40,
          "formattingProvider": "ormolu",
          "plugin": {
            "stan": { "globalOn": true }
          }
        }
      }
    },
    "python": {
      "command": "pylsp",
      "args": ["--check-parent-process"],
      "rootPatterns": ["*.py"],
      "filetypes": ["python", "python3"],
      "settings": {
        "pylsp.plugins.pycodestyle.ignore": ["E501"]
      }
    },
    "bash": {
      "command": "~/.vim/bash-language-server.sh",
      "args": ["start"],
      "filetypes": ["sh"]
    }
  },
  "clangd.path": "clangd",
  "java.configuration.runtimes": [
    {
      "name": "JavaSE-11",
      "path": "/usr/lib/jvm/java-11-openjdk-amd64",
      "default": true
    },
    {
      "name": "JavaSE-19",
      "path": "/usr/lib/jvm/java-19-openjdk-amd64"
    }
  ],
  "java.imports.gradle.wrapper.checksums": [
    {
      "sha256": "1fca1b1af7c3ed6cb9059346aaa89179c82abf11252837115e546c4da38e8b0c",
      "allowed": true
    }
  ]
}
